{
  "environment": {
    "name": "25k",
    "url": "http://25k.testbed.gitlab.net",
    "user": "root",
    "config": {
      "latency": "0"
    },
    "storage_nodes": ["default", "storage2", "storage3"]
  },
  "gpt_data": {
    "root_group": "gpt",
    "large_projects": {
      "group": "large_projects",
      "project": "gitlabhq"
    },
    "many_groups_and_projects": {
      "group": "many_groups_and_projects",
      "subgroups": 250,
      "subgroup_prefix": "gpt-subgroup-",
      "projects": 10,
      "project_prefix": "gpt-project-"
    }
  }
}
